<?xml version="1.0" encoding="utf-8"?>
<!-- Generator: Adobe Illustrator 15.1.0, SVG Export Plug-In . SVG Version: 6.00 Build 0)  -->
<!DOCTYPE svg PUBLIC "-//W3C//DTD SVG 1.1//EN" "http://www.w3.org/Graphics/SVG/1.1/DTD/svg11.dtd">
<svg version="1.1" xmlns="http://www.w3.org/2000/svg" xmlns:xlink="http://www.w3.org/1999/xlink" x="0px" y="0px" width="512px"
	 height="248px" viewBox="0 0 512 248" enable-background="new 0 0 512 248" xml:space="preserve">
<g id="gauge-base">
	<path fill-rule="evenodd" clip-rule="evenodd" fill="#DBE0E3" d="M96.9,200.262c40.717-40.588,96.967-65.693,159.1-65.693
		c62.132,0,118.383,25.105,159.1,65.693l95.458-95.155C445.41,40.167,355.411,0,256,0S66.589,40.167,1.442,105.107L96.9,200.262z"/>
</g>
<g id="gauge-red_x5F__x5F_under_90" display="none">
	<path display="inline" fill-rule="evenodd" clip-rule="evenodd" fill="#F55361" d="M118.243,27.402l-0.542,0.041
		c-43.8,18.183-83.226,44.736-116.259,77.665L96.9,200.262c20.683-20.617,45.38-37.229,72.815-48.595L118.243,27.402z"/>
</g>
<g id="gauge-red_x5F__x5F_over_110" display="none">
	<path display="inline" fill-rule="evenodd" clip-rule="evenodd" fill="#F55361" d="M415.1,200.262l95.458-95.155
		c-33.141-33.035-72.716-59.654-116.686-77.841l-0.115,0.136l-51.472,124.265C369.719,163.033,394.417,179.645,415.1,200.262z"/>
</g>
<g id="gauge-yellow_x5F__x5F_over_105-110" display="none">
	<path display="inline" fill="#FFA531" d="M326.229,6.917l-26.246,131.948c14.664,2.896,28.814,7.213,42.303,12.802l51.472-124.265
		l-0.085-0.219c-21.482-8.871-44.014-15.727-67.356-20.334L326.229,6.917z"/>
</g>
<g id="gauge-yellow_x5F__x5F_under_90-95" display="none">
	<path display="inline" fill="#FFA531" d="M185.771,6.917l-0.086-0.068c-23.359,4.611-45.905,11.473-67.401,20.353l-0.041,0.201
		l51.472,124.265c13.488-5.589,27.638-9.905,42.302-12.802L185.771,6.917z"/>
</g>
<g id="gauge-green_95-105" display="none">
	<path display="inline" fill="#11B7A8" d="M185.812,6.824l-0.041,0.093l26.246,131.949c14.226-2.811,28.929-4.297,43.982-4.297
		c15.053,0,29.757,1.486,43.982,4.297L326.229,6.917l-0.093-0.104C303.449,2.348,280,0,256,0C231.981,0,208.515,2.352,185.812,6.824
		z"/>
</g>
<g id="red_80-90" display="none">
	<path display="inline" fill-rule="evenodd" clip-rule="evenodd" fill="#F55361" d="M1.521,105.185l95.38,95.077
		c20.684-20.618,45.381-37.229,72.816-48.596L118.244,27.401l-0.446,0.001C74.016,45.563,34.602,72.086,1.571,104.98L1.521,105.185z
		"/>
</g>
<g id="yellow_90-100" display="none">
	<path display="inline" fill="#DCB823" d="M118.243,27.402l51.472,124.265c26.573-11.01,55.714-17.099,86.285-17.099V0
		c-48.782,0-95.296,9.678-137.721,27.203L118.243,27.402z"/>
</g>
<g id="green_100-120_1_" display="none">
	<path display="inline" fill-rule="evenodd" clip-rule="evenodd" fill="#0AAACE" d="M415.1,200.262l95.393-95.089l-0.029-0.159
		C445.322,40.128,355.363,0,256,0v134.568C318.132,134.568,374.383,159.674,415.1,200.262z"/>
</g>
<g id="needle">
	<g>
		<path fill-rule="evenodd" clip-rule="evenodd" fill="#313D42" d="M273.848,222.75L258.795,1.995
			C258.721,0.898,257.759,0,256.659,0h-1.318c-1.1,0-2.062,0.898-2.136,1.995L238.153,222.75c-0.091,0.73-0.151,1.471-0.151,2.226
			c0,9.94,8.058,17.998,17.998,17.998c9.939,0,17.998-8.058,17.998-17.998C273.998,224.221,273.938,223.48,273.848,222.75z"/>
		<rect x="238" fill-rule="evenodd" clip-rule="evenodd" fill="none" width="36" height="450"/>
	</g>
</g>
<g id="needle_45dg" display="none">
	<g display="inline">
		<path fill-rule="evenodd" clip-rule="evenodd" fill="#313D42" d="M267.029,210.789L100.289,65.335
			c-0.828-0.723-2.144-0.678-2.922,0.1l-0.932,0.932c-0.777,0.777-0.822,2.093-0.1,2.921l145.454,166.74
			c0.452,0.581,0.933,1.147,1.467,1.681c7.028,7.029,18.425,7.029,25.453,0c7.028-7.028,7.028-18.424,0-25.453
			C268.176,211.723,267.609,211.242,267.029,210.789z"/>
		
			<rect x="238.001" y="0.001" transform="matrix(0.7071 -0.7071 0.7071 0.7071 -84.1189 246.908)" fill-rule="evenodd" clip-rule="evenodd" fill="none" width="36" height="449.999"/>
	</g>
</g>
<g id="needle_-45dg" display="none">
	<g display="inline">
		<path fill-rule="evenodd" clip-rule="evenodd" fill="#313D42" d="M270.211,236.029l145.453-166.74
			c0.724-0.828,0.679-2.144-0.1-2.922l-0.932-0.932c-0.777-0.777-2.093-0.822-2.921-0.1L244.972,210.79
			c-0.581,0.452-1.147,0.933-1.681,1.467c-7.029,7.028-7.029,18.425,0,25.453c7.028,7.028,18.424,7.028,25.453,0
			C269.277,237.176,269.758,236.609,270.211,236.029z"/>
		
			<rect x="238" y="0.001" transform="matrix(0.7071 0.7071 -0.7071 0.7071 234.087 -115.1187)" fill-rule="evenodd" clip-rule="evenodd" fill="none" width="36.001" height="449.999"/>
	</g>
</g>
<g id="needle_-60dg" display="none">
	<g display="inline">
		<path fill-rule="evenodd" clip-rule="evenodd" fill="#313D42" d="M266.872,239.332l183.653-123.413
			c0.912-0.612,1.209-1.896,0.659-2.847l-0.659-1.143c-0.55-0.952-1.809-1.336-2.795-0.852L249.025,208.42
			c-0.678,0.287-1.35,0.604-2.003,0.982c-8.608,4.97-11.558,15.977-6.587,24.585c4.97,8.608,15.977,11.558,24.585,6.588
			C265.674,240.197,266.284,239.775,266.872,239.332z"/>
		
			<rect x="237.999" y="0.001" transform="matrix(0.5 0.866 -0.866 0.5 322.8602 -109.201)" fill-rule="evenodd" clip-rule="evenodd" fill="none" width="36.001" height="450"/>
	</g>
</g>
<g id="needle_60dg" display="none">
	<g display="inline">
		<path fill-rule="evenodd" clip-rule="evenodd" fill="#313D42" d="M262.976,208.418L64.27,111.076
			c-0.986-0.484-2.245-0.1-2.795,0.852l-0.659,1.142c-0.55,0.952-0.253,2.234,0.659,2.847L245.129,239.33
			c0.587,0.443,1.197,0.866,1.852,1.244c8.608,4.97,19.615,2.021,24.586-6.588c4.969-8.607,2.021-19.615-6.588-24.586
			C264.324,209.023,263.653,208.705,262.976,208.418z"/>
		
			<rect x="238" y="-0.001" transform="matrix(0.5 -0.866 0.866 0.5 -66.8536 334.2057)" fill-rule="evenodd" clip-rule="evenodd" fill="none" width="36.001" height="450"/>
	</g>
</g>
<g id="needle_-10dg" display="none">
	<g display="inline">
		<path fill-rule="evenodd" clip-rule="evenodd" fill="#313D42" d="M273.967,225.884l23.51-220.016
			c0.117-1.093-0.674-2.145-1.756-2.336l-1.299-0.229c-1.083-0.191-2.186,0.526-2.449,1.594l-53.158,214.788
			c-0.216,0.703-0.404,1.422-0.535,2.165c-1.727,9.789,4.81,19.124,14.599,20.85c9.789,1.727,19.123-4.81,20.85-14.6
			C273.859,227.358,273.929,226.618,273.967,225.884z"/>
		
			<rect x="238" y="-0.001" transform="matrix(0.9848 0.1736 -0.1736 0.9848 42.9573 -41.0335)" fill-rule="evenodd" clip-rule="evenodd" fill="none" width="36" height="450"/>
	</g>
</g>
<g id="needle_10dg" display="none">
	<g display="inline">
		<path fill-rule="evenodd" clip-rule="evenodd" fill="#313D42" d="M273.185,219.686L220.027,4.897
			c-0.264-1.067-1.366-1.785-2.448-1.595l-1.299,0.229c-1.084,0.19-1.874,1.242-1.757,2.335l23.51,220.015
			c0.037,0.735,0.106,1.475,0.237,2.218c1.726,9.79,11.061,16.326,20.85,14.6c9.79-1.726,16.325-11.06,14.6-20.851
			C273.589,221.107,273.4,220.389,273.185,219.686z"/>
		
			<rect x="237.999" y="-0.001" transform="matrix(0.9848 -0.1737 0.1737 0.9848 -35.1853 47.8783)" fill-rule="evenodd" clip-rule="evenodd" fill="none" width="35.999" height="450"/>
	</g>
</g>
<g id="line_80-120" display="none">
	
		<line display="inline" fill-rule="evenodd" clip-rule="evenodd" fill="none" stroke="#D2D9DC" stroke-miterlimit="10" x1="256" y1="719.954" x2="256" y2="0"/>
	
		<line display="inline" fill-rule="evenodd" clip-rule="evenodd" fill="none" stroke="#D2D9DC" stroke-miterlimit="10" x1="56.007" y1="659.287" x2="455.993" y2="60.668"/>
	
		<line display="inline" fill-rule="evenodd" clip-rule="evenodd" fill="none" stroke="#D2D9DC" stroke-miterlimit="10" x1="455.992" y1="659.287" x2="56.006" y2="60.667"/>
	
		<line display="inline" fill-rule="evenodd" clip-rule="evenodd" fill="none" stroke="#D2D9DC" stroke-miterlimit="10" x1="118.243" y1="692.553" x2="393.757" y2="27.402"/>
	
		<line display="inline" fill-rule="evenodd" clip-rule="evenodd" fill="none" stroke="#D2D9DC" stroke-miterlimit="10" x1="393.758" y1="692.553" x2="118.243" y2="27.402"/>
	
		<line display="inline" fill-rule="evenodd" clip-rule="evenodd" fill="none" stroke="#D2D9DC" stroke-miterlimit="10" x1="1.457" y1="614.52" x2="510.541" y2="105.436"/>
	
		<line display="inline" fill-rule="evenodd" clip-rule="evenodd" fill="none" stroke="#D2D9DC" stroke-miterlimit="10" x1="510.543" y1="614.52" x2="1.459" y2="105.435"/>
	<text transform="matrix(1 0 0 1 -34.5361 65)" display="inline"><tspan x="0" y="0" fill="#2D383C" font-family="'Lato-Regular'" font-size="14">80%</tspan><tspan x="-2.6" y="18" fill="#2D383C" font-family="'Lato-Regular'" font-size="14">-10%</tspan><tspan x="2.055" y="34.284" fill="#98A9B0" font-family="'Lato-Regular'" font-size="12">-45°</tspan></text>
	<text transform="matrix(1 0 0 1 102.2695 -23)" display="inline"><tspan x="0" y="0" fill="#2D383C" font-family="'Lato-Regular'" font-size="14">90%</tspan><tspan x="1.459" y="18" fill="#2D383C" font-family="'Lato-Regular'" font-size="14">-5%</tspan><tspan x="-2.841" y="34.284" fill="#98A9B0" font-family="'Lato-Regular'" font-size="12">-22.5°</tspan></text>
	<text transform="matrix(1 0 0 1 378.21 -23)" display="inline"><tspan x="0" y="0" fill="#2D383C" font-family="'Lato-Regular'" font-size="14">110%</tspan><tspan x="8.12" y="18" fill="#2D383C" font-family="'Lato-Regular'" font-size="14">5%</tspan><tspan x="3.447" y="34.284" fill="#98A9B0" font-family="'Lato-Regular'" font-size="12">22.5°</tspan></text>
	<text transform="matrix(1 0 0 1 238.21 -50)" display="inline"><tspan x="0" y="0" fill="#2D383C" font-family="'Lato-Regular'" font-size="14">100%</tspan><tspan x="8.12" y="18" fill="#2D383C" font-family="'Lato-Regular'" font-size="14">0%</tspan><tspan x="11.823" y="34.284" fill="#98A9B0" font-family="'Lato-Regular'" font-size="12">0°</tspan></text>
	<text transform="matrix(1 0 0 1 520.4043 65)" display="inline"><tspan x="0" y="0" fill="#2D383C" font-family="'Lato-Regular'" font-size="14">120%</tspan><tspan x="4.06" y="18" fill="#2D383C" font-family="'Lato-Regular'" font-size="14">10%</tspan><tspan x="8.344" y="34.284" fill="#98A9B0" font-family="'Lato-Regular'" font-size="12">45°</tspan></text>
	
		<line display="inline" fill-rule="evenodd" clip-rule="evenodd" fill="none" stroke="#D2D9DC" stroke-miterlimit="10" x1="185.772" y1="713.037" x2="326.229" y2="6.917"/>
	
		<line display="inline" fill-rule="evenodd" clip-rule="evenodd" fill="none" stroke="#D2D9DC" stroke-miterlimit="10" x1="326.228" y1="713.037" x2="185.771" y2="6.917"/>
</g>
</svg>
