<?xml version="1.0" encoding="utf-8"?>
<!-- Generator: Adobe Illustrator 15.1.0, SVG Export Plug-In  -->
<!DOCTYPE svg PUBLIC "-//W3C//DTD SVG 1.1//EN" "http://www.w3.org/Graphics/SVG/1.1/DTD/svg11.dtd" [
	<!ENTITY ns_flows "http://ns.adobe.com/Flows/1.0/">
]>
<svg version="1.1"
	 xmlns="http://www.w3.org/2000/svg" xmlns:xlink="http://www.w3.org/1999/xlink" xmlns:a="http://ns.adobe.com/AdobeSVGViewerExtensions/3.0/"
	 x="0px" y="0px" width="240px" height="240px" viewBox="245 245 240 240"
	 overflow="visible" enable-background="new 245 245 240 240" xml:space="preserve">
<defs>
</defs>
<rect x="5" y="5" display="none" fill="#029DF4" width="720" height="720"/>
<g>
	<defs>
		<rect id="SVGID_8_" x="480" width="250" height="250"/>
	</defs>
	<clipPath id="SVGID_10_">
		<use xlink:href="#SVGID_8_"  overflow="visible"/>
	</clipPath>
	<path clip-path="url(#SVGID_10_)" fill="none" d="M724.938,193.062c0,28.719-23.282,52-52,52H536.938c-28.719,0-52-23.281-52-52
		v-136c0-28.719,23.281-52,52-52h136.001c28.718,0,52,23.281,52,52V193.062z"/>
</g>
<g>
	<defs>
		<rect id="SVGID_7_" width="250" height="250"/>
	</defs>
	<clipPath id="SVGID_12_">
		<use xlink:href="#SVGID_7_"  overflow="visible"/>
	</clipPath>
	<path clip-path="url(#SVGID_12_)" fill="none" d="M244.938,193.062c0,28.719-23.281,52-52,52h-136c-28.719,0-52-23.281-52-52v-136
		c0-28.719,23.281-52,52-52h136c28.719,0,52,23.281,52,52V193.062z"/>
</g>
<g>
	<defs>
		<rect id="SVGID_6_" x="240" width="250" height="250"/>
	</defs>
	<clipPath id="SVGID_14_">
		<use xlink:href="#SVGID_6_"  overflow="visible"/>
	</clipPath>
	<path clip-path="url(#SVGID_14_)" fill="none" d="M484.938,193.062c0,28.719-23.281,52-52,52h-136c-28.719,0-52-23.281-52-52v-136
		c0-28.719,23.281-52,52-52h136c28.719,0,52,23.281,52,52V193.062z"/>
</g>
<g>
	<defs>
		<rect id="SVGID_5_" y="240" width="250" height="250"/>
	</defs>
	<clipPath id="SVGID_16_">
		<use xlink:href="#SVGID_5_"  overflow="visible"/>
	</clipPath>
	<path clip-path="url(#SVGID_16_)" fill="none" d="M244.938,433.062c0,28.719-23.281,52-52,52h-136c-28.719,0-52-23.281-52-52v-136
		c0-28.719,23.281-52,52-52h136c28.719,0,52,23.281,52,52V433.062z"/>
</g>
<g>
	<defs>
		<rect id="SVGID_4_" x="240" y="240" width="250" height="250"/>
	</defs>
	<clipPath id="SVGID_18_">
		<use xlink:href="#SVGID_4_"  overflow="visible"/>
	</clipPath>
	<path clip-path="url(#SVGID_18_)" fill="none" d="M484.938,433.062c0,28.719-23.281,52-52,52h-136c-28.719,0-52-23.281-52-52v-136
		c0-28.719,23.281-52,52-52h136c28.719,0,52,23.281,52,52V433.062z"/>
</g>
<path fill-rule="evenodd" clip-rule="evenodd" fill="#FFFFFF" d="M369.051,370.57l28.9-55.563
	c-10.629-2.269-21.646-3.483-32.953-3.483c-35.666,0-68.553,11.879-94.934,31.893c-0.01,0.007-0.014,0.016-0.021,0.023
	c-0.496,0.384-0.822,0.979-0.822,1.657c0,0.485,0.17,0.927,0.447,1.282l-0.004,0.003l33.656,43.2l0.008-0.012
	c0.387,0.496,0.98,0.824,1.658,0.824c0.475,0,0.904-0.164,1.256-0.428c0.012-0.006,0.023-0.006,0.035-0.014
	c16.383-12.23,36.707-19.473,58.721-19.473C366.355,370.48,367.705,370.516,369.051,370.57z"/>
<path fill-rule="evenodd" clip-rule="evenodd" fill="#FFFFFF" d="M460.781,345.097c0-0.66-0.309-1.242-0.785-1.627
	c-0.008-0.006-0.004-0.013-0.012-0.019c-0.037-0.027-0.074-0.054-0.109-0.081c-0.01-0.006-0.018-0.014-0.027-0.019
	c-12.957-9.816-27.484-17.666-43.139-23.117c-0.084,0.369-0.182,0.738-0.312,1.104l-19.475,54.455
	c9.711,3.336,18.738,8.141,26.807,14.164c0.016,0.012,0.029,0.016,0.045,0.021c0.348,0.258,0.777,0.416,1.242,0.416
	c0.691,0,1.301-0.34,1.684-0.855l0.01,0.006l33.639-43.175l-0.004-0.004C460.615,346.013,460.781,345.576,460.781,345.097z"/>
<g>
	<path fill-rule="evenodd" clip-rule="evenodd" fill="#FFFFFF" d="M407.945,316.538c-0.219-0.097-0.449-0.142-0.674-0.142
		c-0.611,0-1.197,0.334-1.498,0.908l-49.172,94.533c-0.006,0.014-0.008,0.025-0.014,0.037c-0.01,0.023-0.025,0.043-0.035,0.066
		c-0.955,2.188-1.002,4.617-0.127,6.842c0.871,2.221,2.557,3.969,4.742,4.924c1.139,0.496,2.344,0.75,3.576,0.75
		c0.439,0,0.869-0.035,1.295-0.098c0.225-0.031,0.441-0.094,0.66-0.145c0.193-0.043,0.391-0.072,0.582-0.129
		c0.307-0.09,0.602-0.213,0.896-0.336c0.088-0.037,0.184-0.062,0.271-0.105c0.355-0.16,0.693-0.35,1.023-0.555
		c0.02-0.014,0.043-0.023,0.066-0.037c1.398-0.891,2.541-2.174,3.277-3.732c0-0.004,0.004-0.008,0.008-0.014
		c0-0.002,0-0.002,0-0.002c0.008-0.012,0.012-0.023,0.016-0.033c0.031-0.061,0.068-0.115,0.096-0.178
		c0.014-0.029,0.021-0.059,0.033-0.086c0.002-0.008,0.006-0.014,0.008-0.02l0.031-0.082c0.002-0.008,0.004-0.016,0.008-0.023
		c0.105-0.258,0.199-0.518,0.277-0.781l35.566-99.449C409.158,317.816,408.76,316.893,407.945,316.538z"/>
</g>
<g>
	<defs>
		<rect id="SVGID_3_" x="480" y="240" width="250" height="250"/>
	</defs>
	<clipPath id="SVGID_20_">
		<use xlink:href="#SVGID_3_"  overflow="visible"/>
	</clipPath>
	<path clip-path="url(#SVGID_20_)" fill="none" d="M724.938,433.062c0,28.719-23.281,52-52,52h-136c-28.719,0-52-23.281-52-52v-136
		c0-28.719,23.281-52,52-52h136c28.719,0,52,23.281,52,52V433.062z"/>
</g>
<g>
	<defs>
		<rect id="SVGID_2_" y="480" width="250" height="250"/>
	</defs>
	<clipPath id="SVGID_22_">
		<use xlink:href="#SVGID_2_"  overflow="visible"/>
	</clipPath>
	<path clip-path="url(#SVGID_22_)" fill="none" d="M244.938,673.062c0,28.719-23.281,52-52,52h-136c-28.719,0-52-23.281-52-52v-136
		c0-28.719,23.281-52,52-52h136c28.719,0,52,23.281,52,52V673.062z"/>
</g>
<g>
	<defs>
		<rect id="SVGID_1_" x="240" y="480" width="250" height="250"/>
	</defs>
	<clipPath id="SVGID_24_">
		<use xlink:href="#SVGID_1_"  overflow="visible"/>
	</clipPath>
	<path clip-path="url(#SVGID_24_)" fill="none" d="M484.938,673.062c0,28.719-23.281,52-52,52h-136c-28.719,0-52-23.281-52-52v-136
		c0-28.719,23.281-52,52-52h136c28.719,0,52,23.281,52,52V673.062z"/>
</g>
<rect id="_x3C_スライス_x3E__10_" x="245" y="245" fill="none" width="240" height="240"/>
</svg>
